......
----------------------------------------------------------------------
Ran 6 tests in 0.001s

OK
Name               Stmts   Miss Branch BrPart  Cover   Missing
--------------------------------------------------------------
Diplomacy.py          60      0     48      0   100%
TestDiplomacy.py      34      0      0      0   100%
--------------------------------------------------------------
TOTAL                 94      0     48      0   100%
