......
----------------------------------------------------------------------
Ran 6 tests in 0.001s

OK
Name               Stmts   Miss Branch BrPart  Cover   Missing
--------------------------------------------------------------
Diplomacy.py          39      0     30      0   100%
TestDiplomacy.py      36      0      4      1    98%   78->exit
--------------------------------------------------------------
TOTAL                 75      0     34      1    99%