...
----------------------------------------------------------------------
Ran 3 tests in 0.000s

OK
Name               Stmts   Miss Branch BrPart  Cover   Missing
--------------------------------------------------------------
Diplomacy.py          96      0     54      0   100%
TestDiplomacy.py      19      0      0      0   100%
--------------------------------------------------------------
TOTAL                115      0     54      0   100%
